{
  "staticRadGroup": "PPP-Standard",
  "disableRadGroup": "daloRADIUS-Disabled-Users",
  "managementRadGroup": "PPP-IPv4-Dynamic-Z",
  "radius": {
    "daeHost": "192.168.95.42",
    "realm": "exo.cat",
    "daePort": 3799,
    "daeSecret": "testing123",
    "timeout": 2000
  },
  "subscriptionsMin": 0,
  "subscriptionsMax": 8999
}
